^C:\USERS\700184611\SOURCE\REPOS\TICTACTOE\TICTACTOE\MAIN.CPP
C:\USERS\700184611\SOURCE\REPOS\TICTACTOE\TICTACTOE\DEBUG\VC141.PDB
C:\USERS\700184611\SOURCE\REPOS\TICTACTOE\TICTACTOE\DEBUG\VC141.IDB
C:\USERS\700184611\SOURCE\REPOS\TICTACTOE\TICTACTOE\DEBUG\MAIN.OBJ
